<?xml version="1.0" encoding="UTF-8" ?>
<!DOCTYPE svg PUBLIC "-//W3C//DTD SVG 1.1//EN" "http://www.w3.org/Graphics/SVG/1.1/DTD/svg11.dtd">
<svg width="262pt" height="193pt" viewBox="0 0 262 193" version="1.1" xmlns="http://www.w3.org/2000/svg">
<g id="#000000ff">
<path fill="#000000" opacity="1.00" d=" M 0.00 0.00 L 0.21 0.00 C 0.16 0.04 0.05 0.12 0.00 0.16 L 0.00 0.00 Z" />
<path fill="#000000" opacity="1.00" d=" M 40.79 2.74 C 41.37 1.10 43.26 -0.20 44.92 0.90 C 49.31 3.69 53.60 6.78 58.55 8.55 C 64.59 11.05 71.23 10.57 77.61 11.11 L 78.39 11.93 C 79.71 12.19 81.62 11.39 82.37 12.95 C 84.01 13.27 86.32 12.22 87.38 13.93 C 87.95 13.96 89.07 14.03 89.64 14.06 C 90.56 16.05 93.43 13.96 94.37 15.93 C 94.94 15.97 96.06 16.03 96.63 16.07 C 99.02 18.73 104.00 15.25 106.37 17.96 C 108.79 18.04 111.21 17.99 113.63 17.99 C 114.07 18.50 114.94 19.50 115.37 20.00 C 116.46 20.00 117.54 20.02 118.63 20.04 C 120.03 22.49 123.95 19.52 125.36 21.96 C 130.92 21.97 136.49 22.26 142.02 21.58 C 148.07 22.14 154.02 20.49 160.06 20.87 C 161.49 21.13 163.42 20.47 164.38 21.94 C 165.80 21.99 167.22 22.01 168.64 22.05 L 169.36 22.90 C 175.10 23.25 180.88 22.75 186.63 23.10 L 187.37 23.96 C 189.94 24.52 193.42 22.88 195.38 24.93 C 195.94 24.96 197.07 25.03 197.63 25.06 C 198.82 27.26 202.18 24.74 203.37 26.93 C 203.94 26.97 205.06 27.03 205.62 27.07 C 206.81 29.28 210.22 26.70 211.36 28.96 C 214.45 29.07 217.54 28.93 220.64 29.04 L 221.36 29.89 C 225.40 29.67 229.15 31.24 233.11 31.69 C 242.73 32.70 252.39 30.75 262.00 31.84 L 262.00 34.45 C 260.96 40.84 258.97 46.99 257.23 53.21 C 256.61 54.96 256.80 56.81 257.38 58.53 L 255.44 54.52 C 255.20 57.13 255.40 59.91 254.42 62.41 C 248.41 80.40 238.96 97.21 235.01 115.88 C 226.89 141.48 218.71 167.10 211.64 193.00 L 211.40 193.00 C 211.26 192.79 210.98 192.38 210.84 192.18 C 189.00 186.62 166.49 183.45 143.93 184.01 C 123.03 184.26 103.98 174.44 83.97 169.92 C 81.84 169.37 79.61 169.25 77.54 168.47 C 66.28 163.69 55.20 157.81 42.94 156.08 C 34.90 155.47 26.90 153.79 19.52 150.49 C 15.97 149.09 12.79 146.81 9.04 145.91 C 5.82 145.01 2.12 144.43 0.00 141.54 L 0.00 137.90 C 8.49 121.61 12.99 103.68 18.10 86.14 C 19.81 79.79 22.08 73.56 22.94 67.01 C 26.41 48.26 33.55 30.45 37.92 11.91 C 38.83 8.85 39.49 5.67 40.79 2.74 M 43.10 6.40 C 41.37 12.49 39.42 18.54 37.76 24.67 L 37.01 25.13 C 36.96 28.02 37.01 30.91 36.99 33.80 C 34.97 33.90 36.50 36.56 35.88 37.81 C 31.01 49.54 27.40 62.03 26.98 74.73 C 26.49 75.08 25.50 75.78 25.01 76.13 C 25.00 76.78 24.98 78.07 24.97 78.72 C 24.48 79.07 23.51 79.78 23.02 80.13 C 23.35 82.73 22.28 85.10 21.40 87.47 C 16.85 103.01 11.46 118.28 6.72 133.76 C 6.16 135.08 5.84 136.47 5.74 137.90 C 8.92 140.69 12.56 142.91 16.45 144.56 C 29.58 150.02 43.94 150.46 57.44 154.53 C 66.19 157.50 74.29 162.15 83.14 164.84 C 96.98 167.37 110.00 173.06 123.66 176.28 C 131.32 178.49 139.35 178.36 147.27 177.98 C 145.07 174.93 143.05 171.72 141.92 168.11 C 140.42 164.68 139.76 160.65 137.02 157.94 C 134.02 158.27 131.27 160.63 128.02 160.01 C 122.22 160.74 115.89 158.19 112.99 152.98 C 111.70 147.12 120.65 147.09 121.11 141.76 C 117.69 142.57 114.29 139.56 114.99 136.04 C 114.58 131.41 119.60 125.92 124.18 129.13 C 124.18 127.85 123.95 126.62 123.51 125.43 C 121.51 118.53 120.75 111.16 117.24 104.76 C 116.44 102.73 116.63 100.44 117.26 98.39 C 120.35 92.41 127.08 88.81 129.15 82.28 C 130.98 81.41 131.58 78.62 133.89 78.94 L 134.24 78.13 C 138.41 77.19 143.61 76.99 146.11 72.96 C 147.68 71.04 146.61 68.52 147.15 66.34 C 155.81 55.24 158.19 40.83 165.81 29.13 C 161.60 27.79 157.18 28.22 152.93 27.16 C 149.55 26.75 146.12 27.31 142.76 26.60 C 136.89 25.43 130.84 26.61 124.98 25.30 C 119.46 24.20 113.47 26.33 108.29 23.67 C 103.95 22.16 99.35 22.15 94.92 21.07 C 93.18 20.96 90.45 21.09 89.89 19.00 C 81.75 19.90 74.21 15.75 66.09 16.26 L 65.99 15.00 C 64.73 15.00 63.47 14.99 62.21 14.99 C 61.76 13.42 59.40 13.82 58.25 12.70 C 52.78 11.60 48.56 7.43 43.10 6.40 M 176.02 29.04 C 176.30 29.25 176.86 29.66 177.14 29.86 C 187.58 34.07 198.56 36.80 208.87 41.35 C 209.09 43.08 209.17 44.90 208.27 46.47 C 203.48 60.15 198.01 73.67 191.04 86.38 C 189.88 95.75 194.57 104.49 194.01 113.79 C 192.11 112.96 190.06 112.92 188.04 112.94 C 187.05 118.97 187.24 125.17 188.91 131.06 C 189.48 134.20 190.91 137.29 190.82 140.47 C 185.59 133.04 185.77 123.73 182.87 115.43 L 181.91 115.46 C 180.71 131.39 183.74 147.24 189.09 162.22 C 186.54 162.20 185.22 159.40 184.99 157.21 C 184.07 153.67 183.99 149.61 180.95 147.09 C 179.62 141.89 180.58 135.74 177.05 131.30 C 176.74 139.59 174.51 147.67 174.98 156.02 C 174.80 162.03 178.31 167.81 183.82 170.30 C 182.07 171.40 179.79 171.20 178.38 169.65 C 176.05 166.79 175.12 163.09 172.76 160.25 C 172.35 160.49 171.54 160.98 171.13 161.23 C 169.75 166.51 172.56 171.30 174.94 175.78 C 174.76 176.07 174.40 176.66 174.23 176.95 C 171.40 175.29 172.67 171.44 170.04 169.66 C 169.80 170.03 169.32 170.79 169.08 171.16 C 169.33 174.34 167.51 177.33 168.16 180.48 C 176.14 180.75 184.09 180.31 192.06 180.00 C 192.13 178.56 191.78 177.23 191.01 176.02 C 196.00 180.38 202.62 181.76 208.32 184.86 C 208.72 184.92 209.53 185.04 209.93 185.11 C 213.04 171.95 217.29 158.99 221.07 145.98 C 230.16 116.26 240.22 86.81 252.23 58.13 L 253.75 57.96 C 253.40 56.63 253.24 55.17 254.11 54.00 C 252.18 47.77 257.37 42.32 257.04 36.20 C 250.08 36.95 243.08 36.99 236.12 36.30 C 231.72 35.65 227.20 36.51 222.90 35.18 C 207.15 34.11 191.73 30.18 176.02 29.04 M 167.23 32.90 C 164.16 40.83 158.82 48.00 157.95 56.67 C 163.58 54.73 169.11 52.04 175.23 52.50 L 175.84 51.85 L 176.41 49.11 C 182.13 47.34 177.44 54.64 180.71 53.64 C 182.30 51.20 186.56 49.91 187.71 53.62 C 186.47 55.21 187.45 57.07 187.20 58.84 C 186.77 58.90 185.92 59.04 185.49 59.10 C 187.07 61.58 189.88 62.83 191.66 65.13 C 188.37 65.04 185.66 62.30 182.29 62.96 C 180.33 60.82 177.17 60.64 174.76 59.72 C 174.67 57.23 172.10 58.78 170.98 59.49 C 171.91 60.99 173.48 61.13 175.03 60.57 C 175.45 61.01 176.29 61.90 176.71 62.34 C 176.86 63.98 178.59 65.06 180.09 65.24 C 177.67 66.74 179.54 69.52 180.91 71.07 C 183.26 74.03 188.28 72.94 190.27 76.11 C 187.91 75.61 185.55 75.04 183.12 74.98 C 184.65 77.67 185.79 81.27 189.26 81.95 C 195.74 69.98 201.17 57.34 204.33 44.07 C 200.33 41.87 195.87 40.75 191.68 39.00 C 191.01 39.61 189.65 40.82 188.98 41.43 L 189.13 39.21 C 188.82 38.94 188.20 38.40 187.89 38.13 L 187.12 38.40 C 181.17 35.10 174.18 32.70 167.23 32.90 M 176.66 58.31 C 178.44 58.84 180.45 58.28 182.30 58.81 C 181.76 56.57 178.26 58.26 176.92 56.50 C 176.86 56.95 176.72 57.86 176.66 58.31 M 182.30 58.81 C 181.38 60.81 185.87 62.38 184.42 59.60 C 183.89 59.40 182.83 59.01 182.30 58.81 M 157.17 67.60 C 159.15 67.32 161.43 65.49 160.69 63.29 C 158.42 62.40 156.31 65.53 157.17 67.60 M 167.28 64.37 C 168.00 64.98 168.67 66.21 169.81 65.83 C 171.40 65.46 171.17 63.96 170.13 63.11 C 169.18 63.53 168.23 63.95 167.28 64.37 M 151.71 68.64 C 143.94 82.31 143.97 101.07 154.68 113.21 C 156.91 115.29 159.92 118.01 158.08 121.36 C 144.64 118.69 135.41 106.36 121.91 103.97 C 124.67 120.36 131.62 135.65 138.21 150.78 C 141.69 151.83 141.63 145.69 144.22 145.01 C 144.37 149.12 141.79 152.81 142.36 156.94 C 143.14 163.40 146.71 168.99 148.92 175.00 C 149.37 176.18 149.61 177.92 151.28 177.88 C 155.01 178.70 158.98 180.14 162.76 178.84 C 164.95 177.68 164.99 175.11 165.03 172.96 C 168.07 153.65 165.81 134.01 167.18 114.58 C 168.24 107.65 168.65 100.30 171.73 93.93 C 173.91 95.72 174.59 98.56 176.33 100.70 C 177.84 97.35 177.83 93.54 178.15 89.93 C 175.82 90.84 173.46 91.70 171.12 92.58 C 171.81 90.21 173.58 86.55 176.67 88.22 C 178.80 89.85 179.84 86.59 179.97 84.95 C 178.97 81.29 172.68 81.37 172.04 85.22 C 170.71 91.67 164.23 95.91 157.93 96.23 C 152.84 93.47 149.05 87.83 149.87 81.88 C 149.96 77.07 155.01 73.95 154.86 69.09 C 155.01 67.37 152.14 67.06 151.71 68.64 M 161.66 70.63 C 159.66 72.40 161.29 75.14 161.93 77.17 C 162.60 81.23 160.87 85.89 163.70 89.40 C 164.33 91.16 166.24 89.91 166.87 88.91 C 168.76 86.88 167.20 83.81 168.76 81.60 C 169.58 77.97 168.99 73.54 165.86 71.13 C 164.77 70.23 162.82 69.48 161.66 70.63 M 172.08 79.89 C 173.46 79.94 175.68 80.47 175.62 78.37 C 175.17 77.94 174.29 77.08 173.85 76.65 C 172.52 77.20 171.67 78.41 172.08 79.89 M 135.66 82.99 C 136.18 85.47 135.69 88.11 136.51 90.50 C 136.84 92.19 138.57 92.68 140.02 92.05 C 137.36 95.06 138.67 99.33 140.75 102.26 C 142.53 104.74 144.41 107.35 147.08 108.94 C 145.52 104.37 144.56 99.61 142.90 95.07 C 140.45 90.00 144.13 84.66 142.97 79.39 C 140.38 80.26 137.98 81.57 135.66 82.99 M 159.72 91.03 C 160.07 90.53 160.78 89.51 161.13 89.01 C 159.70 85.74 157.06 83.23 154.19 81.20 C 151.73 84.91 155.33 91.21 159.72 91.03 M 121.90 97.72 C 128.69 100.31 134.35 105.06 141.02 107.87 C 135.69 101.44 134.61 92.91 131.12 85.57 C 127.55 89.20 124.73 93.50 121.90 97.72 M 188.01 91.18 C 188.08 94.79 188.02 98.39 188.11 102.00 C 188.75 104.99 188.84 108.90 191.99 110.44 C 192.25 105.96 191.05 101.59 190.96 97.13 C 190.60 94.91 189.80 92.65 188.01 91.18 M 182.02 96.22 C 182.49 99.81 180.26 103.40 181.86 106.86 C 182.18 108.30 183.38 109.32 184.89 109.15 C 182.27 105.22 187.17 98.65 182.02 96.22 M 118.37 133.07 C 118.84 133.86 118.91 135.38 120.13 135.33 C 121.13 135.04 122.66 133.69 121.46 132.70 C 120.45 131.88 119.33 132.61 118.37 133.07 M 129.01 143.42 C 126.91 146.94 127.21 151.93 123.30 154.40 C 123.76 155.39 124.39 156.27 125.19 157.03 C 128.22 157.09 131.81 157.43 133.89 154.72 C 135.33 151.94 133.05 149.26 132.32 146.64 C 130.73 142.40 129.54 137.06 124.91 135.12 C 120.28 137.34 124.32 145.28 129.01 143.42 M 120.39 151.99 C 121.23 153.40 122.67 151.92 123.81 151.85 C 125.30 150.01 123.80 147.87 122.72 146.28 C 121.15 147.77 120.81 149.97 120.39 151.99 Z" />
</g>
<g id="#ffffffff">
<path fill="#ffffff" opacity="1.00" d=" M 0.21 0.00 L 262.00 0.00 L 262.00 31.84 C 252.39 30.75 242.73 32.70 233.11 31.69 C 229.15 31.24 225.40 29.67 221.36 29.89 L 220.64 29.04 C 217.54 28.93 214.45 29.07 211.36 28.96 C 210.22 26.70 206.81 29.28 205.62 27.07 C 205.06 27.03 203.94 26.97 203.37 26.93 C 202.18 24.74 198.82 27.26 197.63 25.06 C 197.07 25.03 195.94 24.96 195.38 24.93 C 193.42 22.88 189.94 24.52 187.37 23.96 L 186.63 23.10 C 180.88 22.75 175.10 23.25 169.36 22.90 L 168.64 22.05 C 167.22 22.01 165.80 21.99 164.38 21.94 C 163.42 20.47 161.49 21.13 160.06 20.87 C 154.02 20.49 148.07 22.14 142.02 21.58 C 136.49 22.26 130.92 21.97 125.36 21.96 C 123.95 19.52 120.03 22.49 118.63 20.04 C 117.54 20.02 116.46 20.00 115.37 20.00 C 114.94 19.50 114.07 18.50 113.63 17.99 C 111.21 17.99 108.79 18.04 106.37 17.96 C 104.00 15.25 99.02 18.73 96.63 16.07 C 96.06 16.03 94.94 15.97 94.37 15.93 C 93.43 13.96 90.56 16.05 89.64 14.06 C 89.07 14.03 87.95 13.96 87.38 13.93 C 86.32 12.22 84.01 13.27 82.37 12.95 C 81.62 11.39 79.71 12.19 78.39 11.93 L 77.61 11.11 C 71.23 10.57 64.59 11.05 58.55 8.55 C 53.60 6.78 49.31 3.69 44.92 0.90 C 43.26 -0.20 41.37 1.10 40.79 2.74 C 39.49 5.67 38.83 8.85 37.92 11.91 C 33.55 30.45 26.41 48.26 22.94 67.01 C 22.08 73.56 19.81 79.79 18.10 86.14 C 12.99 103.68 8.49 121.61 0.00 137.90 L 0.00 0.16 C 0.05 0.12 0.16 0.04 0.21 0.00 Z" />
<path fill="#ffffff" opacity="1.00" d=" M 167.23 32.90 C 174.18 32.70 181.17 35.10 187.12 38.40 C 186.92 38.58 186.51 38.93 186.31 39.11 C 183.17 41.55 179.27 42.73 176.13 45.15 C 174.05 46.78 174.26 50.05 175.82 51.97 L 175.84 51.85 L 175.23 52.50 C 169.11 52.04 163.58 54.73 157.95 56.67 C 158.82 48.00 164.16 40.83 167.23 32.90 Z" />
<path fill="#ffffff" opacity="1.00" d=" M 257.23 53.21 C 258.97 46.99 260.96 40.84 262.00 34.45 L 262.00 193.00 L 211.64 193.00 C 218.71 167.10 226.89 141.48 235.01 115.88 C 238.96 97.21 248.41 80.40 254.42 62.41 C 255.40 59.91 255.20 57.13 255.44 54.52 L 257.38 58.53 C 256.80 56.81 256.61 54.96 257.23 53.21 Z" />
<path fill="#ffffff" opacity="1.00" d=" M 188.98 41.43 C 189.65 40.82 191.01 39.61 191.68 39.00 C 195.87 40.75 200.33 41.87 204.33 44.07 C 201.17 57.34 195.74 69.98 189.26 81.95 C 185.79 81.27 184.65 77.67 183.12 74.98 C 185.55 75.04 187.91 75.61 190.27 76.11 C 188.28 72.94 183.26 74.03 180.91 71.07 C 179.54 69.52 177.67 66.74 180.09 65.24 C 181.09 64.75 181.82 63.99 182.29 62.96 C 185.66 62.30 188.37 65.04 191.66 65.13 C 189.88 62.83 187.07 61.58 185.49 59.10 C 185.92 59.04 186.77 58.90 187.20 58.84 C 189.80 58.66 192.42 58.03 194.08 55.84 C 194.74 52.64 192.56 50.39 190.28 48.58 C 189.58 45.79 190.10 42.84 190.57 40.04 L 188.98 41.43 Z" />
<path fill="#ffffff" opacity="1.00" d=" M 170.98 59.49 C 172.10 58.78 174.67 57.23 174.76 59.72 C 174.83 59.93 174.96 60.36 175.03 60.57 C 173.48 61.13 171.91 60.99 170.98 59.49 Z" />
<path fill="#ffffff" opacity="1.00" d=" M 167.28 64.37 C 168.23 63.95 169.18 63.53 170.13 63.11 C 171.17 63.96 171.40 65.46 169.81 65.83 C 168.67 66.21 168.00 64.98 167.28 64.37 Z" />
<path fill="#ffffff" opacity="1.00" d=" M 161.66 70.63 C 162.82 69.48 164.77 70.23 165.86 71.13 C 168.99 73.54 169.58 77.97 168.76 81.60 C 167.20 83.81 168.76 86.88 166.87 88.91 C 166.24 89.91 164.33 91.16 163.70 89.40 C 160.87 85.89 162.60 81.23 161.93 77.17 C 161.29 75.14 159.66 72.40 161.66 70.63 Z" />
<path fill="#ffffff" opacity="1.00" d=" M 135.66 82.99 C 137.98 81.57 140.38 80.26 142.97 79.39 C 144.13 84.66 140.45 90.00 142.90 95.07 C 144.56 99.61 145.52 104.37 147.08 108.94 C 144.41 107.35 142.53 104.74 140.75 102.26 C 138.67 99.33 137.36 95.06 140.02 92.05 C 138.57 92.68 136.84 92.19 136.51 90.50 C 135.69 88.11 136.18 85.47 135.66 82.99 Z" />
<path fill="#ffffff" opacity="1.00" d=" M 159.72 91.03 C 155.33 91.21 151.73 84.91 154.19 81.20 C 157.06 83.23 159.70 85.74 161.13 89.01 C 160.78 89.51 160.07 90.53 159.72 91.03 Z" />
<path fill="#ffffff" opacity="1.00" d=" M 121.90 97.72 C 124.73 93.50 127.55 89.20 131.12 85.57 C 134.61 92.91 135.69 101.44 141.02 107.87 C 134.35 105.06 128.69 100.31 121.90 97.72 Z" />
<path fill="#ffffff" opacity="1.00" d=" M 0.00 141.54 C 2.12 144.43 5.82 145.01 9.04 145.91 C 12.79 146.81 15.97 149.09 19.52 150.49 C 26.90 153.79 34.90 155.47 42.94 156.08 C 55.20 157.81 66.28 163.69 77.54 168.47 C 79.61 169.25 81.84 169.37 83.97 169.92 C 103.98 174.44 123.03 184.26 143.93 184.01 C 166.49 183.45 189.00 186.62 210.84 192.18 C 210.98 192.38 211.26 192.79 211.40 193.00 L 0.00 193.00 L 0.00 141.54 Z" />
</g>
<g id="#e0cf7bff">
<path fill="#e0cf7b" opacity="1.00" d=" M 43.10 6.40 C 48.56 7.43 52.78 11.60 58.25 12.70 C 59.40 13.82 61.76 13.42 62.21 14.99 C 63.47 14.99 64.73 15.00 65.99 15.00 L 66.09 16.26 C 74.21 15.75 81.75 19.90 89.89 19.00 C 90.45 21.09 93.18 20.96 94.92 21.07 C 99.35 22.15 103.95 22.16 108.29 23.67 C 113.47 26.33 119.46 24.20 124.98 25.30 C 130.84 26.61 136.89 25.43 142.76 26.60 C 146.12 27.31 149.55 26.75 152.93 27.16 C 157.18 28.22 161.60 27.79 165.81 29.13 C 158.19 40.83 155.81 55.24 147.15 66.34 C 146.61 68.52 147.68 71.04 146.11 72.96 C 143.61 76.99 138.41 77.19 134.24 78.13 L 133.89 78.94 C 131.58 78.62 130.98 81.41 129.15 82.28 C 127.08 88.81 120.35 92.41 117.26 98.39 C 116.63 100.44 116.44 102.73 117.24 104.76 C 120.75 111.16 121.51 118.53 123.51 125.43 C 123.95 126.62 124.18 127.85 124.18 129.13 C 119.60 125.92 114.58 131.41 114.99 136.04 C 114.29 139.56 117.69 142.57 121.11 141.76 C 120.65 147.09 111.70 147.12 112.99 152.98 C 115.89 158.19 122.22 160.74 128.02 160.01 C 131.27 160.63 134.02 158.27 137.02 157.94 C 139.76 160.65 140.42 164.68 141.92 168.11 C 143.05 171.72 145.07 174.93 147.27 177.98 C 139.35 178.36 131.32 178.49 123.66 176.28 C 110.00 173.06 96.98 167.37 83.14 164.84 C 74.29 162.15 66.19 157.50 57.44 154.53 C 43.94 150.46 29.58 150.02 16.45 144.56 C 12.56 142.91 8.92 140.69 5.74 137.90 C 5.84 136.47 6.16 135.08 6.72 133.76 C 11.46 118.28 16.85 103.01 21.40 87.47 C 22.28 85.10 23.35 82.73 23.02 80.13 C 23.51 79.78 24.48 79.07 24.97 78.72 C 24.98 78.07 25.00 76.78 25.01 76.13 C 25.50 75.78 26.49 75.08 26.98 74.73 C 27.40 62.03 31.01 49.54 35.88 37.81 C 36.50 36.56 34.97 33.90 36.99 33.80 C 37.01 30.91 36.96 28.02 37.01 25.13 L 37.76 24.67 C 39.42 18.54 41.37 12.49 43.10 6.40 Z" />
<path fill="#e0cf7b" opacity="1.00" d=" M 176.02 29.04 C 191.73 30.18 207.15 34.11 222.90 35.18 C 227.20 36.51 231.72 35.65 236.12 36.30 C 243.08 36.99 250.08 36.95 257.04 36.20 C 257.37 42.32 252.18 47.77 254.11 54.00 C 253.24 55.17 253.40 56.63 253.75 57.96 L 252.23 58.13 C 240.22 86.81 230.16 116.26 221.07 145.98 C 217.29 158.99 213.04 171.95 209.93 185.11 C 209.53 185.04 208.72 184.92 208.32 184.86 C 202.62 181.76 196.00 180.38 191.01 176.02 C 191.78 177.23 192.13 178.56 192.06 180.00 C 184.09 180.31 176.14 180.75 168.16 180.48 C 167.51 177.33 169.33 174.34 169.08 171.16 C 169.32 170.79 169.80 170.03 170.04 169.66 C 172.67 171.44 171.40 175.29 174.23 176.95 C 174.40 176.66 174.76 176.07 174.94 175.78 C 172.56 171.30 169.75 166.51 171.13 161.23 C 171.54 160.98 172.35 160.49 172.76 160.25 C 175.12 163.09 176.05 166.79 178.38 169.65 C 179.79 171.20 182.07 171.40 183.82 170.30 C 178.31 167.81 174.80 162.03 174.98 156.02 C 174.51 147.67 176.74 139.59 177.05 131.30 C 180.58 135.74 179.62 141.89 180.95 147.09 C 183.99 149.61 184.07 153.67 184.99 157.21 C 185.22 159.40 186.54 162.20 189.09 162.22 C 183.74 147.24 180.71 131.39 181.91 115.46 L 182.87 115.43 C 185.77 123.73 185.59 133.04 190.82 140.47 C 190.91 137.29 189.48 134.20 188.91 131.06 C 187.24 125.17 187.05 118.97 188.04 112.94 C 190.06 112.92 192.11 112.96 194.01 113.79 C 194.57 104.49 189.88 95.75 191.04 86.38 C 198.01 73.67 203.48 60.15 208.27 46.47 C 209.17 44.90 209.09 43.08 208.87 41.35 C 198.56 36.80 187.58 34.07 177.14 29.86 C 176.86 29.66 176.30 29.25 176.02 29.04 Z" />
<path fill="#e0cf7b" opacity="1.00" d=" M 188.01 91.18 C 189.80 92.65 190.60 94.91 190.96 97.13 C 191.05 101.59 192.25 105.96 191.99 110.44 C 188.84 108.90 188.75 104.99 188.11 102.00 C 188.02 98.39 188.08 94.79 188.01 91.18 Z" />
<path fill="#e0cf7b" opacity="1.00" d=" M 182.02 96.22 C 187.17 98.65 182.27 105.22 184.89 109.15 C 183.38 109.32 182.18 108.30 181.86 106.86 C 180.26 103.40 182.49 99.81 182.02 96.22 Z" />
<path fill="#e0cf7b" opacity="1.00" d=" M 129.01 143.42 C 124.32 145.28 120.28 137.34 124.91 135.12 C 129.54 137.06 130.73 142.40 132.32 146.64 C 133.05 149.26 135.33 151.94 133.89 154.72 C 131.81 157.43 128.22 157.09 125.19 157.03 C 124.39 156.27 123.76 155.39 123.30 154.40 C 127.21 151.93 126.91 146.94 129.01 143.42 Z" />
</g>
<g id="#ed1c24ff">
<path fill="#ed1c24" opacity="1.00" d=" M 187.12 38.40 L 187.89 38.13 C 188.20 38.40 188.82 38.94 189.13 39.21 L 188.98 41.43 L 190.57 40.04 C 190.10 42.84 189.58 45.79 190.28 48.58 C 192.56 50.39 194.74 52.64 194.08 55.84 C 192.42 58.03 189.80 58.66 187.20 58.84 C 187.45 57.07 186.47 55.21 187.71 53.62 C 186.56 49.91 182.30 51.20 180.71 53.64 C 177.44 54.64 182.13 47.34 176.41 49.11 L 175.84 51.85 L 175.82 51.97 C 174.26 50.05 174.05 46.78 176.13 45.15 C 179.27 42.73 183.17 41.55 186.31 39.11 C 186.51 38.93 186.92 38.58 187.12 38.40 Z" />
<path fill="#ed1c24" opacity="1.00" d=" M 176.66 58.31 C 176.72 57.86 176.86 56.95 176.92 56.50 C 178.26 58.26 181.76 56.57 182.30 58.81 C 180.45 58.28 178.44 58.84 176.66 58.31 Z" />
<path fill="#ed1c24" opacity="1.00" d=" M 174.76 59.72 C 177.17 60.64 180.33 60.82 182.29 62.96 C 181.82 63.99 181.09 64.75 180.09 65.24 C 178.59 65.06 176.86 63.98 176.71 62.34 C 176.29 61.90 175.45 61.01 175.03 60.57 C 174.96 60.36 174.83 59.93 174.76 59.72 Z" />
<path fill="#ed1c24" opacity="1.00" d=" M 182.30 58.81 C 182.83 59.01 183.89 59.40 184.42 59.60 C 185.87 62.38 181.38 60.81 182.30 58.81 Z" />
</g>
<g id="#ff00ffff">
<path fill="#ff00ff" opacity="1.00" d=" M 157.17 67.60 C 156.31 65.53 158.42 62.40 160.69 63.29 C 161.43 65.49 159.15 67.32 157.17 67.60 Z" />
<path fill="#ff00ff" opacity="1.00" d=" M 151.71 68.64 C 152.14 67.06 155.01 67.37 154.86 69.09 C 155.01 73.95 149.96 77.07 149.87 81.88 C 149.05 87.83 152.84 93.47 157.93 96.23 C 164.23 95.91 170.71 91.67 172.04 85.22 C 172.68 81.37 178.97 81.29 179.97 84.95 C 179.84 86.59 178.80 89.85 176.67 88.22 C 173.58 86.55 171.81 90.21 171.12 92.58 C 173.46 91.70 175.82 90.84 178.15 89.93 C 177.83 93.54 177.84 97.35 176.33 100.70 C 174.59 98.56 173.91 95.72 171.73 93.93 C 168.65 100.30 168.24 107.65 167.18 114.58 C 165.81 134.01 168.07 153.65 165.03 172.96 C 164.99 175.11 164.95 177.68 162.76 178.84 C 158.98 180.14 155.01 178.70 151.28 177.88 C 149.61 177.92 149.37 176.18 148.92 175.00 C 146.71 168.99 143.14 163.40 142.36 156.94 C 141.79 152.81 144.37 149.12 144.22 145.01 C 141.63 145.69 141.69 151.83 138.21 150.78 C 131.62 135.65 124.67 120.36 121.91 103.97 C 135.41 106.36 144.64 118.69 158.08 121.36 C 159.92 118.01 156.91 115.29 154.68 113.21 C 143.97 101.07 143.94 82.31 151.71 68.64 Z" />
<path fill="#ff00ff" opacity="1.00" d=" M 172.08 79.89 C 171.67 78.41 172.52 77.20 173.85 76.65 C 174.29 77.08 175.17 77.94 175.62 78.37 C 175.68 80.47 173.46 79.94 172.08 79.89 Z" />
<path fill="#ff00ff" opacity="1.00" d=" M 118.37 133.07 C 119.33 132.61 120.45 131.88 121.46 132.70 C 122.66 133.69 121.13 135.04 120.13 135.33 C 118.91 135.38 118.84 133.86 118.37 133.07 Z" />
<path fill="#ff00ff" opacity="1.00" d=" M 120.39 151.99 C 120.81 149.97 121.15 147.77 122.72 146.28 C 123.80 147.87 125.30 150.01 123.81 151.85 C 122.67 151.92 121.23 153.40 120.39 151.99 Z" />
</g>
</svg>
